…
Do this all using `modelr` package
----------------------------------

``` r
cv_df = 
  crossv_mc(nonlin_df,100) #crossc_mc: generate testing-training paris for cross-validation
```

one note about resample

``` r
cv_df %>% pull(train) %>% .[[1]] %>% as_tibble
```

    ## # A tibble: 79 x 3
    ##       id      x       y
    ##    <int>  <dbl>   <dbl>
    ##  1     1 0.266   1.11  
    ##  2     2 0.372   0.764 
    ##  3     3 0.573   0.358 
    ##  4     4 0.908  -3.04  
    ##  5     6 0.898  -1.99  
    ##  6     7 0.945  -3.27  
    ##  7     8 0.661  -0.615 
    ##  8     9 0.629   0.0878
    ##  9    10 0.0618  0.392 
    ## 10    11 0.206   1.63  
    ## # … with 69 more rows
…
``` r
cv_df %>% 
  mutate(
    linear_mods = map(.x = train, ~lm(y~x, data = .x)),
    rmse_lin = map2(.x = linear_mods, .y = test, ~rmse(.x,.y))
  )
```

    ## # A tibble: 100 x 5
    ##    train             test              .id   linear_mods rmse_lin 
    ##    <list>            <list>            <chr> <list>      <list>   
    ##  1 <tibble [79 × 3]> <tibble [21 × 3]> 001   <lm>        <dbl [1]>
    ##  2 <tibble [79 × 3]> <tibble [21 × 3]> 002   <lm>        <dbl [1]>
    ##  3 <tibble [79 × 3]> <tibble [21 × 3]> 003   <lm>        <dbl [1]>
    ##  4 <tibble [79 × 3]> <tibble [21 × 3]> 004   <lm>        <dbl [1]>
    ##  5 <tibble [79 × 3]> <tibble [21 × 3]> 005   <lm>        <dbl [1]>
    ##  6 <tibble [79 × 3]> <tibble [21 × 3]> 006   <lm>        <dbl [1]>
    ##  7 <tibble [79 × 3]> <tibble [21 × 3]> 007   <lm>        <dbl [1]>
    ##  8 <tibble [79 × 3]> <tibble [21 × 3]> 008   <lm>        <dbl [1]>
    ##  9 <tibble [79 × 3]> <tibble [21 × 3]> 009   <lm>        <dbl [1]>
    ## 10 <tibble [79 × 3]> <tibble [21 × 3]> 010   <lm>        <dbl [1]>
    ## # … with 90 more rows
…
